D:\ProyectoCalidad\spring-boot-backend-apirest\src\main\java\com\bolsadeideas\springboot\backend\apirest\models\entity\Factura.java
D:\ProyectoCalidad\spring-boot-backend-apirest\src\main\java\com\bolsadeideas\springboot\backend\apirest\models\dao\IFacturaDao.java
D:\ProyectoCalidad\spring-boot-backend-apirest\src\main\java\com\bolsadeideas\springboot\backend\apirest\models\services\DistribuidorServiceImpl.java
D:\ProyectoCalidad\spring-boot-backend-apirest\src\main\java\com\bolsadeideas\springboot\backend\apirest\auth\SpringSecurityConfig.java
D:\ProyectoCalidad\spring-boot-backend-apirest\src\main\java\com\bolsadeideas\springboot\backend\apirest\models\dao\IUsuarioDao.java
D:\ProyectoCalidad\spring-boot-backend-apirest\src\main\java\com\bolsadeideas\springboot\backend\apirest\models\entity\ItemFactura.java
D:\ProyectoCalidad\spring-boot-backend-apirest\src\main\java\com\bolsadeideas\springboot\backend\apirest\models\dao\IDistribuidorDao.java
D:\ProyectoCalidad\spring-boot-backend-apirest\src\main\java\com\bolsadeideas\springboot\backend\apirest\models\services\IProductoService.java
D:\ProyectoCalidad\spring-boot-backend-apirest\src\main\java\com\bolsadeideas\springboot\backend\apirest\auth\JwtConfig.java
D:\ProyectoCalidad\spring-boot-backend-apirest\src\main\java\com\bolsadeideas\springboot\backend\apirest\models\entity\Distribuidor.java
D:\ProyectoCalidad\spring-boot-backend-apirest\src\main\java\com\bolsadeideas\springboot\backend\apirest\models\services\IDistribuidorService.java
D:\ProyectoCalidad\spring-boot-backend-apirest\src\main\java\com\bolsadeideas\springboot\backend\apirest\controllers\UsuarioController.java
D:\ProyectoCalidad\spring-boot-backend-apirest\src\main\java\com\bolsadeideas\springboot\backend\apirest\models\entity\Producto.java
D:\ProyectoCalidad\spring-boot-backend-apirest\src\main\java\com\bolsadeideas\springboot\backend\apirest\models\entity\Usuario.java
D:\ProyectoCalidad\spring-boot-backend-apirest\src\main\java\com\bolsadeideas\springboot\backend\apirest\models\services\ClienteServiceImpl.java
D:\ProyectoCalidad\spring-boot-backend-apirest\src\main\java\com\bolsadeideas\springboot\backend\apirest\auth\AuthorizationServerConfig.java
D:\ProyectoCalidad\spring-boot-backend-apirest\src\main\java\com\bolsadeideas\springboot\backend\apirest\controllers\ProductoRestController.java
D:\ProyectoCalidad\spring-boot-backend-apirest\src\main\java\com\bolsadeideas\springboot\backend\apirest\models\services\UsuarioService.java
D:\ProyectoCalidad\spring-boot-backend-apirest\src\main\java\com\bolsadeideas\springboot\backend\apirest\models\services\IUsuarioService.java
D:\ProyectoCalidad\spring-boot-backend-apirest\src\main\java\com\bolsadeideas\springboot\backend\apirest\SpringBootBackendApirestApplication.java
D:\ProyectoCalidad\spring-boot-backend-apirest\src\main\java\com\bolsadeideas\springboot\backend\apirest\controllers\DistribuidorController.java
D:\ProyectoCalidad\spring-boot-backend-apirest\src\main\java\com\bolsadeideas\springboot\backend\apirest\models\dao\IProductoDao.java
D:\ProyectoCalidad\spring-boot-backend-apirest\src\main\java\com\bolsadeideas\springboot\backend\apirest\controllers\ClienteRestController.java
D:\ProyectoCalidad\spring-boot-backend-apirest\src\main\java\com\bolsadeideas\springboot\backend\apirest\auth\InfoAdicionalToken.java
D:\ProyectoCalidad\spring-boot-backend-apirest\src\main\java\com\bolsadeideas\springboot\backend\apirest\controllers\FacturaRestController.java
D:\ProyectoCalidad\spring-boot-backend-apirest\src\main\java\com\bolsadeideas\springboot\backend\apirest\models\entity\Region.java
D:\ProyectoCalidad\spring-boot-backend-apirest\src\main\java\com\bolsadeideas\springboot\backend\apirest\models\entity\Role.java
D:\ProyectoCalidad\spring-boot-backend-apirest\src\main\java\com\bolsadeideas\springboot\backend\apirest\models\services\IClienteService.java
D:\ProyectoCalidad\spring-boot-backend-apirest\src\main\java\com\bolsadeideas\springboot\backend\apirest\models\services\UploadFileServiceImpl.java
D:\ProyectoCalidad\spring-boot-backend-apirest\src\main\java\com\bolsadeideas\springboot\backend\apirest\controllers\RolController.java
D:\ProyectoCalidad\spring-boot-backend-apirest\src\main\java\com\bolsadeideas\springboot\backend\apirest\models\services\ProductoServiceImpl.java
D:\ProyectoCalidad\spring-boot-backend-apirest\src\main\java\com\bolsadeideas\springboot\backend\apirest\models\dao\IClienteDao.java
D:\ProyectoCalidad\spring-boot-backend-apirest\src\main\java\com\bolsadeideas\springboot\backend\apirest\models\entity\Cliente.java
D:\ProyectoCalidad\spring-boot-backend-apirest\src\main\java\com\bolsadeideas\springboot\backend\apirest\models\services\IUploadFileService.java
D:\ProyectoCalidad\spring-boot-backend-apirest\src\main\java\com\bolsadeideas\springboot\backend\apirest\auth\ResourceServerConfig.java
